-- Merging decision tree log ---
manifest
ADDED from /home/bk/Downloads/PlugMeInAppPrototype2/app/src/main/AndroidManifest.xml:2:1-42:12
INJECTED from /home/bk/Downloads/PlugMeInAppPrototype2/app/src/main/AndroidManifest.xml:2:1-42:12
INJECTED from /home/bk/Downloads/PlugMeInAppPrototype2/app/src/main/AndroidManifest.xml:2:1-42:12
INJECTED from /home/bk/Downloads/PlugMeInAppPrototype2/app/src/main/AndroidManifest.xml:2:1-42:12
MERGED from [com.firebaseui:firebase-ui-database:0.4.3] /home/bk/.gradle/caches/transforms-1/files-1.1/firebase-ui-database-0.4.3.aar/8d2cbaa683ea5d09837c7a461b252d57/AndroidManifest.xml:2:1-13:12
MERGED from [com.android.support:appcompat-v7:27.1.1] /home/bk/.gradle/caches/transforms-1/files-1.1/appcompat-v7-27.1.1.aar/00733f98a78d6118bbb15e2c340a2531/AndroidManifest.xml:17:1-22:12
MERGED from [com.android.support.constraint:constraint-layout:1.1.0] /home/bk/.gradle/caches/transforms-1/files-1.1/constraint-layout-1.1.0.aar/08e3aa1c2d6d010b55cb24781e8d16eb/AndroidManifest.xml:2:1-11:12
MERGED from [com.google.firebase:firebase-core:15.0.0] /home/bk/.gradle/caches/transforms-1/files-1.1/firebase-core-15.0.0.aar/ef49bc0197b194020dbe01f483d3ce2f/AndroidManifest.xml:2:1-9:12
MERGED from [com.google.firebase:firebase-auth:15.0.0] /home/bk/.gradle/caches/transforms-1/files-1.1/firebase-auth-15.0.0.aar/eea0f68972a807a7302eeeb1fdfc2896/AndroidManifest.xml:17:1-32:12
MERGED from [com.google.firebase:firebase-database:15.0.0] /home/bk/.gradle/caches/transforms-1/files-1.1/firebase-database-15.0.0.aar/ac64426060a7d9fc1d8ccc1ae5e94f1c/AndroidManifest.xml:2:1-8:12
MERGED from [com.google.firebase:firebase-firestore:15.0.0] /home/bk/.gradle/caches/transforms-1/files-1.1/firebase-firestore-15.0.0.aar/f60eb5f10f3bb9e0d43b013f1fc6fdcb/AndroidManifest.xml:2:1-8:12
MERGED from [de.hdodenhof:circleimageview:2.2.0] /home/bk/.gradle/caches/transforms-1/files-1.1/circleimageview-2.2.0.aar/7bfe8c728006c5ce44aa0e62047542ce/AndroidManifest.xml:2:1-11:12
MERGED from [com.squareup.picasso:picasso:2.71828] /home/bk/.gradle/caches/transforms-1/files-1.1/picasso-2.71828.aar/77f089b2aaa2e526765374a21df9d492/AndroidManifest.xml:2:1-14:12
MERGED from [com.android.support:cardview-v7:27.1.1] /home/bk/.gradle/caches/transforms-1/files-1.1/cardview-v7-27.1.1.aar/a72c62d23411ad9cc725130d4fa83a09/AndroidManifest.xml:17:1-22:12
MERGED from [com.android.support:recyclerview-v7:24.0.0] /home/bk/.gradle/caches/transforms-1/files-1.1/recyclerview-v7-24.0.0.aar/9c9cc1135de7dc4303a713d128d621b9/AndroidManifest.xml:17:1-22:12
MERGED from [com.android.support:exifinterface:27.1.0] /home/bk/.gradle/caches/transforms-1/files-1.1/exifinterface-27.1.0.aar/29e777ee559dda0db63450cc42815dd9/AndroidManifest.xml:17:1-22:12
MERGED from [com.android.support:animated-vector-drawable:27.1.1] /home/bk/.gradle/caches/transforms-1/files-1.1/animated-vector-drawable-27.1.1.aar/8d0f427336a606e59beaa605ae17d167/AndroidManifest.xml:17:1-22:12
MERGED from [com.android.support:support-vector-drawable:27.1.1] /home/bk/.gradle/caches/transforms-1/files-1.1/support-vector-drawable-27.1.1.aar/9c690be06f8b13502db81b479b4753a0/AndroidManifest.xml:17:1-22:12
MERGED from [com.google.firebase:firebase-database-connection:15.0.0] /home/bk/.gradle/caches/transforms-1/files-1.1/firebase-database-connection-15.0.0.aar/fb160c1eec7c0ec8f79c6e646654af3f/AndroidManifest.xml:2:1-8:12
MERGED from [com.google.firebase:firebase-analytics:15.0.2] /home/bk/.gradle/caches/transforms-1/files-1.1/firebase-analytics-15.0.2.aar/e4663816129384173feb1104a6e8c442/AndroidManifest.xml:17:1-55:12
MERGED from [com.google.android.gms:play-services-flags:15.0.1] /home/bk/.gradle/caches/transforms-1/files-1.1/play-services-flags-15.0.1.aar/cdb00b19e1c0a0587f56b7e9877334e7/AndroidManifest.xml:17:1-22:12
MERGED from [com.google.firebase:firebase-analytics-impl:15.0.2] /home/bk/.gradle/caches/transforms-1/files-1.1/firebase-analytics-impl-15.0.2.aar/6331364440c8eb48951ba27242639076/AndroidManifest.xml:17:1-41:12
MERGED from [com.google.firebase:firebase-iid:15.1.0] /home/bk/.gradle/caches/transforms-1/files-1.1/firebase-iid-15.1.0.aar/6335d7517feb282a29d89754fa6bf4a8/AndroidManifest.xml:17:1-65:12
MERGED from [com.google.firebase:firebase-iid-interop:15.0.0] /home/bk/.gradle/caches/transforms-1/files-1.1/firebase-iid-interop-15.0.0.aar/43fe8d24978bd6c3c453580753e73d60/AndroidManifest.xml:2:1-10:12
MERGED from [com.google.android.gms:play-services-base:15.0.1] /home/bk/.gradle/caches/transforms-1/files-1.1/play-services-base-15.0.1.aar/529d2b93282a9b752a1dd96e99281ce4/AndroidManifest.xml:17:1-29:12
MERGED from [com.google.firebase:firebase-common:15.0.1] /home/bk/.gradle/caches/transforms-1/files-1.1/firebase-common-15.0.1.aar/95a1c784ff5532c382f5d8196e48d0aa/AndroidManifest.xml:2:1-15:12
MERGED from [com.google.android.gms:play-services-tasks:15.0.1] /home/bk/.gradle/caches/transforms-1/files-1.1/play-services-tasks-15.0.1.aar/5899d072b76d539e43ec16eddfedce29/AndroidManifest.xml:2:1-9:12
MERGED from [com.google.firebase:firebase-database-collection:15.0.1] /home/bk/.gradle/caches/transforms-1/files-1.1/firebase-database-collection-15.0.1.aar/8ef863b5f84c61ad14a659833f01df0e/AndroidManifest.xml:2:1-8:12
MERGED from [com.google.android.gms:play-services-stats:15.0.1] /home/bk/.gradle/caches/transforms-1/files-1.1/play-services-stats-15.0.1.aar/1bf6280364cf792fffb0de96e55fbc18/AndroidManifest.xml:2:1-9:12
MERGED from [com.google.android.gms:play-services-ads-identifier:15.0.1] /home/bk/.gradle/caches/transforms-1/files-1.1/play-services-ads-identifier-15.0.1.aar/1d8c074aaa624e3f691545a73d7099d2/AndroidManifest.xml:17:1-24:12
MERGED from [com.google.android.gms:play-services-basement:15.0.1] /home/bk/.gradle/caches/transforms-1/files-1.1/play-services-basement-15.0.1.aar/a26164390d95e30bbd443269003062ab/AndroidManifest.xml:17:1-28:12
MERGED from [com.android.support:support-v4:26.1.0] /home/bk/.gradle/caches/transforms-1/files-1.1/support-v4-26.1.0.aar/ce24a0cf3168ebbe9c885d276ebdf7f1/AndroidManifest.xml:17:1-31:12
MERGED from [com.android.support:support-media-compat:26.1.0] /home/bk/.gradle/caches/transforms-1/files-1.1/support-media-compat-26.1.0.aar/e07585e9d564ae730a534d607d610bf9/AndroidManifest.xml:17:1-31:12
MERGED from [com.android.support:support-fragment:27.1.1] /home/bk/.gradle/caches/transforms-1/files-1.1/support-fragment-27.1.1.aar/ee207736fae2f3f16586ca43bf3511c2/AndroidManifest.xml:17:1-22:12
MERGED from [com.android.support:support-core-ui:27.1.1] /home/bk/.gradle/caches/transforms-1/files-1.1/support-core-ui-27.1.1.aar/8dee99e676b965e09782827c64a61714/AndroidManifest.xml:17:1-22:12
MERGED from [com.android.support:support-core-utils:27.1.1] /home/bk/.gradle/caches/transforms-1/files-1.1/support-core-utils-27.1.1.aar/f678cfadf92f0341ef3d3f61e0d375c7/AndroidManifest.xml:17:1-22:12
MERGED from [com.android.support:support-compat:27.1.1] /home/bk/.gradle/caches/transforms-1/files-1.1/support-compat-27.1.1.aar/4b3fb10e005801d76b1e2bc8fadfd986/AndroidManifest.xml:17:1-22:12
MERGED from [com.google.android.gms:play-services-measurement-base:15.0.2] /home/bk/.gradle/caches/transforms-1/files-1.1/play-services-measurement-base-15.0.2.aar/d783ba25a1a11d3b5b8e12cdd197aafe/AndroidManifest.xml:17:1-24:12
MERGED from [android.arch.lifecycle:livedata-core:1.1.0] /home/bk/.gradle/caches/transforms-1/files-1.1/livedata-core-1.1.0.aar/c3858b017e292566c26f6ffd50eb6e02/AndroidManifest.xml:17:1-22:12
MERGED from [android.arch.lifecycle:viewmodel:1.1.0] /home/bk/.gradle/caches/transforms-1/files-1.1/viewmodel-1.1.0.aar/f15267eda240d5dd05c8570742c9533a/AndroidManifest.xml:17:1-22:12
MERGED from [android.arch.lifecycle:runtime:1.1.0] /home/bk/.gradle/caches/transforms-1/files-1.1/runtime-1.1.0.aar/c2280ae9e03a2ed858fb362710a84320/AndroidManifest.xml:17:1-22:12
MERGED from [android.arch.core:runtime:1.1.0] /home/bk/.gradle/caches/transforms-1/files-1.1/runtime-1.1.0.aar/9d09fb9f4d60315f74f3a1b7fcb29dfa/AndroidManifest.xml:17:1-22:12
INJECTED from /home/bk/Downloads/PlugMeInAppPrototype2/app/src/main/AndroidManifest.xml:2:1-42:12
INJECTED from /home/bk/Downloads/PlugMeInAppPrototype2/app/src/main/AndroidManifest.xml:2:1-42:12
INJECTED from /home/bk/Downloads/PlugMeInAppPrototype2/app/src/main/AndroidManifest.xml:2:1-42:12
	package
		ADDED from /home/bk/Downloads/PlugMeInAppPrototype2/app/src/main/AndroidManifest.xml:3:5-42
		INJECTED from /home/bk/Downloads/PlugMeInAppPrototype2/app/src/main/AndroidManifest.xml
		INJECTED from /home/bk/Downloads/PlugMeInAppPrototype2/app/src/main/AndroidManifest.xml
	android:versionName
		INJECTED from /home/bk/Downloads/PlugMeInAppPrototype2/app/src/main/AndroidManifest.xml
		ADDED from /home/bk/Downloads/PlugMeInAppPrototype2/app/src/main/AndroidManifest.xml:2:1-42:12
		INJECTED from /home/bk/Downloads/PlugMeInAppPrototype2/app/src/main/AndroidManifest.xml
	android:versionCode
		INJECTED from /home/bk/Downloads/PlugMeInAppPrototype2/app/src/main/AndroidManifest.xml
		ADDED from /home/bk/Downloads/PlugMeInAppPrototype2/app/src/main/AndroidManifest.xml:2:1-42:12
		INJECTED from /home/bk/Downloads/PlugMeInAppPrototype2/app/src/main/AndroidManifest.xml
	xmlns:android
		ADDED from /home/bk/Downloads/PlugMeInAppPrototype2/app/src/main/AndroidManifest.xml:2:11-69
uses-permission#android.permission.INTERNET
ADDED from /home/bk/Downloads/PlugMeInAppPrototype2/app/src/main/AndroidManifest.xml:5:5-67
MERGED from [com.firebaseui:firebase-ui-database:0.4.3] /home/bk/.gradle/caches/transforms-1/files-1.1/firebase-ui-database-0.4.3.aar/8d2cbaa683ea5d09837c7a461b252d57/AndroidManifest.xml:11:5-67
MERGED from [com.firebaseui:firebase-ui-database:0.4.3] /home/bk/.gradle/caches/transforms-1/files-1.1/firebase-ui-database-0.4.3.aar/8d2cbaa683ea5d09837c7a461b252d57/AndroidManifest.xml:11:5-67
MERGED from [com.google.firebase:firebase-analytics:15.0.2] /home/bk/.gradle/caches/transforms-1/files-1.1/firebase-analytics-15.0.2.aar/e4663816129384173feb1104a6e8c442/AndroidManifest.xml:23:5-67
MERGED from [com.google.firebase:firebase-analytics:15.0.2] /home/bk/.gradle/caches/transforms-1/files-1.1/firebase-analytics-15.0.2.aar/e4663816129384173feb1104a6e8c442/AndroidManifest.xml:23:5-67
MERGED from [com.google.firebase:firebase-analytics-impl:15.0.2] /home/bk/.gradle/caches/transforms-1/files-1.1/firebase-analytics-impl-15.0.2.aar/6331364440c8eb48951ba27242639076/AndroidManifest.xml:23:5-67
MERGED from [com.google.firebase:firebase-analytics-impl:15.0.2] /home/bk/.gradle/caches/transforms-1/files-1.1/firebase-analytics-impl-15.0.2.aar/6331364440c8eb48951ba27242639076/AndroidManifest.xml:23:5-67
MERGED from [com.google.firebase:firebase-iid:15.1.0] /home/bk/.gradle/caches/transforms-1/files-1.1/firebase-iid-15.1.0.aar/6335d7517feb282a29d89754fa6bf4a8/AndroidManifest.xml:23:5-67
MERGED from [com.google.firebase:firebase-iid:15.1.0] /home/bk/.gradle/caches/transforms-1/files-1.1/firebase-iid-15.1.0.aar/6335d7517feb282a29d89754fa6bf4a8/AndroidManifest.xml:23:5-67
	android:name
		ADDED from /home/bk/Downloads/PlugMeInAppPrototype2/app/src/main/AndroidManifest.xml:5:22-64
application
ADDED from /home/bk/Downloads/PlugMeInAppPrototype2/app/src/main/AndroidManifest.xml:7:5-40:19
MERGED from [com.android.support.constraint:constraint-layout:1.1.0] /home/bk/.gradle/caches/transforms-1/files-1.1/constraint-layout-1.1.0.aar/08e3aa1c2d6d010b55cb24781e8d16eb/AndroidManifest.xml:9:5-20
MERGED from [com.android.support.constraint:constraint-layout:1.1.0] /home/bk/.gradle/caches/transforms-1/files-1.1/constraint-layout-1.1.0.aar/08e3aa1c2d6d010b55cb24781e8d16eb/AndroidManifest.xml:9:5-20
MERGED from [com.google.firebase:firebase-core:15.0.0] /home/bk/.gradle/caches/transforms-1/files-1.1/firebase-core-15.0.0.aar/ef49bc0197b194020dbe01f483d3ce2f/AndroidManifest.xml:7:5-20
MERGED from [com.google.firebase:firebase-core:15.0.0] /home/bk/.gradle/caches/transforms-1/files-1.1/firebase-core-15.0.0.aar/ef49bc0197b194020dbe01f483d3ce2f/AndroidManifest.xml:7:5-20
MERGED from [com.google.firebase:firebase-auth:15.0.0] /home/bk/.gradle/caches/transforms-1/files-1.1/firebase-auth-15.0.0.aar/eea0f68972a807a7302eeeb1fdfc2896/AndroidManifest.xml:22:5-30:19
MERGED from [com.google.firebase:firebase-auth:15.0.0] /home/bk/.gradle/caches/transforms-1/files-1.1/firebase-auth-15.0.0.aar/eea0f68972a807a7302eeeb1fdfc2896/AndroidManifest.xml:22:5-30:19
MERGED from [de.hdodenhof:circleimageview:2.2.0] /home/bk/.gradle/caches/transforms-1/files-1.1/circleimageview-2.2.0.aar/7bfe8c728006c5ce44aa0e62047542ce/AndroidManifest.xml:9:5-20
MERGED from [de.hdodenhof:circleimageview:2.2.0] /home/bk/.gradle/caches/transforms-1/files-1.1/circleimageview-2.2.0.aar/7bfe8c728006c5ce44aa0e62047542ce/AndroidManifest.xml:9:5-20
MERGED from [com.squareup.picasso:picasso:2.71828] /home/bk/.gradle/caches/transforms-1/files-1.1/picasso-2.71828.aar/77f089b2aaa2e526765374a21df9d492/AndroidManifest.xml:7:5-12:19
MERGED from [com.squareup.picasso:picasso:2.71828] /home/bk/.gradle/caches/transforms-1/files-1.1/picasso-2.71828.aar/77f089b2aaa2e526765374a21df9d492/AndroidManifest.xml:7:5-12:19
MERGED from [com.google.firebase:firebase-analytics:15.0.2] /home/bk/.gradle/caches/transforms-1/files-1.1/firebase-analytics-15.0.2.aar/e4663816129384173feb1104a6e8c442/AndroidManifest.xml:28:5-53:19
MERGED from [com.google.firebase:firebase-analytics:15.0.2] /home/bk/.gradle/caches/transforms-1/files-1.1/firebase-analytics-15.0.2.aar/e4663816129384173feb1104a6e8c442/AndroidManifest.xml:28:5-53:19
MERGED from [com.google.firebase:firebase-analytics-impl:15.0.2] /home/bk/.gradle/caches/transforms-1/files-1.1/firebase-analytics-impl-15.0.2.aar/6331364440c8eb48951ba27242639076/AndroidManifest.xml:28:5-39:19
MERGED from [com.google.firebase:firebase-analytics-impl:15.0.2] /home/bk/.gradle/caches/transforms-1/files-1.1/firebase-analytics-impl-15.0.2.aar/6331364440c8eb48951ba27242639076/AndroidManifest.xml:28:5-39:19
MERGED from [com.google.firebase:firebase-iid:15.1.0] /home/bk/.gradle/caches/transforms-1/files-1.1/firebase-iid-15.1.0.aar/6335d7517feb282a29d89754fa6bf4a8/AndroidManifest.xml:34:5-63:19
MERGED from [com.google.firebase:firebase-iid:15.1.0] /home/bk/.gradle/caches/transforms-1/files-1.1/firebase-iid-15.1.0.aar/6335d7517feb282a29d89754fa6bf4a8/AndroidManifest.xml:34:5-63:19
MERGED from [com.google.firebase:firebase-iid-interop:15.0.0] /home/bk/.gradle/caches/transforms-1/files-1.1/firebase-iid-interop-15.0.0.aar/43fe8d24978bd6c3c453580753e73d60/AndroidManifest.xml:7:5-8:19
MERGED from [com.google.firebase:firebase-iid-interop:15.0.0] /home/bk/.gradle/caches/transforms-1/files-1.1/firebase-iid-interop-15.0.0.aar/43fe8d24978bd6c3c453580753e73d60/AndroidManifest.xml:7:5-8:19
MERGED from [com.google.android.gms:play-services-base:15.0.1] /home/bk/.gradle/caches/transforms-1/files-1.1/play-services-base-15.0.1.aar/529d2b93282a9b752a1dd96e99281ce4/AndroidManifest.xml:22:5-27:19
MERGED from [com.google.android.gms:play-services-base:15.0.1] /home/bk/.gradle/caches/transforms-1/files-1.1/play-services-base-15.0.1.aar/529d2b93282a9b752a1dd96e99281ce4/AndroidManifest.xml:22:5-27:19
MERGED from [com.google.firebase:firebase-common:15.0.1] /home/bk/.gradle/caches/transforms-1/files-1.1/firebase-common-15.0.1.aar/95a1c784ff5532c382f5d8196e48d0aa/AndroidManifest.xml:7:5-13:19
MERGED from [com.google.firebase:firebase-common:15.0.1] /home/bk/.gradle/caches/transforms-1/files-1.1/firebase-common-15.0.1.aar/95a1c784ff5532c382f5d8196e48d0aa/AndroidManifest.xml:7:5-13:19
MERGED from [com.google.android.gms:play-services-tasks:15.0.1] /home/bk/.gradle/caches/transforms-1/files-1.1/play-services-tasks-15.0.1.aar/5899d072b76d539e43ec16eddfedce29/AndroidManifest.xml:7:5-20
MERGED from [com.google.android.gms:play-services-tasks:15.0.1] /home/bk/.gradle/caches/transforms-1/files-1.1/play-services-tasks-15.0.1.aar/5899d072b76d539e43ec16eddfedce29/AndroidManifest.xml:7:5-20
MERGED from [com.google.android.gms:play-services-stats:15.0.1] /home/bk/.gradle/caches/transforms-1/files-1.1/play-services-stats-15.0.1.aar/1bf6280364cf792fffb0de96e55fbc18/AndroidManifest.xml:7:5-20
MERGED from [com.google.android.gms:play-services-stats:15.0.1] /home/bk/.gradle/caches/transforms-1/files-1.1/play-services-stats-15.0.1.aar/1bf6280364cf792fffb0de96e55fbc18/AndroidManifest.xml:7:5-20
MERGED from [com.google.android.gms:play-services-ads-identifier:15.0.1] /home/bk/.gradle/caches/transforms-1/files-1.1/play-services-ads-identifier-15.0.1.aar/1d8c074aaa624e3f691545a73d7099d2/AndroidManifest.xml:22:5-20
MERGED from [com.google.android.gms:play-services-ads-identifier:15.0.1] /home/bk/.gradle/caches/transforms-1/files-1.1/play-services-ads-identifier-15.0.1.aar/1d8c074aaa624e3f691545a73d7099d2/AndroidManifest.xml:22:5-20
MERGED from [com.google.android.gms:play-services-basement:15.0.1] /home/bk/.gradle/caches/transforms-1/files-1.1/play-services-basement-15.0.1.aar/a26164390d95e30bbd443269003062ab/AndroidManifest.xml:22:5-26:19
MERGED from [com.google.android.gms:play-services-basement:15.0.1] /home/bk/.gradle/caches/transforms-1/files-1.1/play-services-basement-15.0.1.aar/a26164390d95e30bbd443269003062ab/AndroidManifest.xml:22:5-26:19
MERGED from [com.android.support:support-v4:26.1.0] /home/bk/.gradle/caches/transforms-1/files-1.1/support-v4-26.1.0.aar/ce24a0cf3168ebbe9c885d276ebdf7f1/AndroidManifest.xml:25:5-29:19
MERGED from [com.android.support:support-v4:26.1.0] /home/bk/.gradle/caches/transforms-1/files-1.1/support-v4-26.1.0.aar/ce24a0cf3168ebbe9c885d276ebdf7f1/AndroidManifest.xml:25:5-29:19
MERGED from [com.android.support:support-media-compat:26.1.0] /home/bk/.gradle/caches/transforms-1/files-1.1/support-media-compat-26.1.0.aar/e07585e9d564ae730a534d607d610bf9/AndroidManifest.xml:25:5-29:19
MERGED from [com.android.support:support-media-compat:26.1.0] /home/bk/.gradle/caches/transforms-1/files-1.1/support-media-compat-26.1.0.aar/e07585e9d564ae730a534d607d610bf9/AndroidManifest.xml:25:5-29:19
MERGED from [com.google.android.gms:play-services-measurement-base:15.0.2] /home/bk/.gradle/caches/transforms-1/files-1.1/play-services-measurement-base-15.0.2.aar/d783ba25a1a11d3b5b8e12cdd197aafe/AndroidManifest.xml:22:5-20
MERGED from [com.google.android.gms:play-services-measurement-base:15.0.2] /home/bk/.gradle/caches/transforms-1/files-1.1/play-services-measurement-base-15.0.2.aar/d783ba25a1a11d3b5b8e12cdd197aafe/AndroidManifest.xml:22:5-20
	android:supportsRtl
		ADDED from /home/bk/Downloads/PlugMeInAppPrototype2/app/src/main/AndroidManifest.xml:12:9-35
	android:label
		ADDED from /home/bk/Downloads/PlugMeInAppPrototype2/app/src/main/AndroidManifest.xml:10:9-41
	android:roundIcon
		ADDED from /home/bk/Downloads/PlugMeInAppPrototype2/app/src/main/AndroidManifest.xml:11:9-54
	android:icon
		ADDED from /home/bk/Downloads/PlugMeInAppPrototype2/app/src/main/AndroidManifest.xml:9:9-43
	android:allowBackup
		ADDED from /home/bk/Downloads/PlugMeInAppPrototype2/app/src/main/AndroidManifest.xml:8:9-35
	android:theme
		ADDED from /home/bk/Downloads/PlugMeInAppPrototype2/app/src/main/AndroidManifest.xml:13:9-65
activity#com.plugmeinapp.plugmeinapp.RegisterActivity
ADDED from /home/bk/Downloads/PlugMeInAppPrototype2/app/src/main/AndroidManifest.xml:14:9-22:20
	android:label
		ADDED from /home/bk/Downloads/PlugMeInAppPrototype2/app/src/main/AndroidManifest.xml:16:13-45
	android:name
		ADDED from /home/bk/Downloads/PlugMeInAppPrototype2/app/src/main/AndroidManifest.xml:15:13-45
intent-filter#action:name:com.plugmeinapp.plugmeinapp.RegisterActivity+category:name:android.intent.category.DEFAULT
ADDED from /home/bk/Downloads/PlugMeInAppPrototype2/app/src/main/AndroidManifest.xml:17:13-21:29
action#com.plugmeinapp.plugmeinapp.RegisterActivity
ADDED from /home/bk/Downloads/PlugMeInAppPrototype2/app/src/main/AndroidManifest.xml:18:17-87
	android:name
		ADDED from /home/bk/Downloads/PlugMeInAppPrototype2/app/src/main/AndroidManifest.xml:18:25-84
category#android.intent.category.DEFAULT
ADDED from /home/bk/Downloads/PlugMeInAppPrototype2/app/src/main/AndroidManifest.xml:20:17-76
	android:name
		ADDED from /home/bk/Downloads/PlugMeInAppPrototype2/app/src/main/AndroidManifest.xml:20:27-73
activity#com.plugmeinapp.plugmeinapp.LoginActivity
ADDED from /home/bk/Downloads/PlugMeInAppPrototype2/app/src/main/AndroidManifest.xml:23:9-51
	android:name
		ADDED from /home/bk/Downloads/PlugMeInAppPrototype2/app/src/main/AndroidManifest.xml:23:19-48
activity#com.plugmeinapp.plugmeinapp.MainActivity
ADDED from /home/bk/Downloads/PlugMeInAppPrototype2/app/src/main/AndroidManifest.xml:24:9-50
	android:name
		ADDED from /home/bk/Downloads/PlugMeInAppPrototype2/app/src/main/AndroidManifest.xml:24:19-47
activity#com.plugmeinapp.plugmeinapp.SplashActivity
ADDED from /home/bk/Downloads/PlugMeInAppPrototype2/app/src/main/AndroidManifest.xml:25:9-31:20
	android:name
		ADDED from /home/bk/Downloads/PlugMeInAppPrototype2/app/src/main/AndroidManifest.xml:25:19-49
intent-filter#action:name:android.intent.action.MAIN+category:name:android.intent.category.LAUNCHER
ADDED from /home/bk/Downloads/PlugMeInAppPrototype2/app/src/main/AndroidManifest.xml:26:13-30:29
action#android.intent.action.MAIN
ADDED from /home/bk/Downloads/PlugMeInAppPrototype2/app/src/main/AndroidManifest.xml:27:17-69
	android:name
		ADDED from /home/bk/Downloads/PlugMeInAppPrototype2/app/src/main/AndroidManifest.xml:27:25-66
category#android.intent.category.LAUNCHER
ADDED from /home/bk/Downloads/PlugMeInAppPrototype2/app/src/main/AndroidManifest.xml:29:17-77
	android:name
		ADDED from /home/bk/Downloads/PlugMeInAppPrototype2/app/src/main/AndroidManifest.xml:29:27-74
activity#com.plugmeinapp.plugmeinapp.ChooseUserTypeActivity
ADDED from /home/bk/Downloads/PlugMeInAppPrototype2/app/src/main/AndroidManifest.xml:32:9-60
	android:name
		ADDED from /home/bk/Downloads/PlugMeInAppPrototype2/app/src/main/AndroidManifest.xml:32:19-57
activity#com.plugmeinapp.plugmeinapp.UserProfileActivity
ADDED from /home/bk/Downloads/PlugMeInAppPrototype2/app/src/main/AndroidManifest.xml:33:9-57
	android:name
		ADDED from /home/bk/Downloads/PlugMeInAppPrototype2/app/src/main/AndroidManifest.xml:33:19-54
activity#com.plugmeinapp.plugmeinapp.ArtistStartChatActivity
ADDED from /home/bk/Downloads/PlugMeInAppPrototype2/app/src/main/AndroidManifest.xml:36:9-37:57
	android:parentActivityName
		ADDED from /home/bk/Downloads/PlugMeInAppPrototype2/app/src/main/AndroidManifest.xml:37:13-55
	android:name
		ADDED from /home/bk/Downloads/PlugMeInAppPrototype2/app/src/main/AndroidManifest.xml:36:19-58
activity#com.plugmeinapp.plugmeinapp.ArtistChatActivity
ADDED from /home/bk/Downloads/PlugMeInAppPrototype2/app/src/main/AndroidManifest.xml:38:9-56
	android:name
		ADDED from /home/bk/Downloads/PlugMeInAppPrototype2/app/src/main/AndroidManifest.xml:38:19-53
activity#com.plugmeinapp.plugmeinapp.UserChatActivity
ADDED from /home/bk/Downloads/PlugMeInAppPrototype2/app/src/main/AndroidManifest.xml:39:9-63
	android:name
		ADDED from /home/bk/Downloads/PlugMeInAppPrototype2/app/src/main/AndroidManifest.xml:39:19-51
uses-sdk
INJECTED from /home/bk/Downloads/PlugMeInAppPrototype2/app/src/main/AndroidManifest.xml reason: use-sdk injection requested
INJECTED from /home/bk/Downloads/PlugMeInAppPrototype2/app/src/main/AndroidManifest.xml
INJECTED from /home/bk/Downloads/PlugMeInAppPrototype2/app/src/main/AndroidManifest.xml
MERGED from [com.firebaseui:firebase-ui-database:0.4.3] /home/bk/.gradle/caches/transforms-1/files-1.1/firebase-ui-database-0.4.3.aar/8d2cbaa683ea5d09837c7a461b252d57/AndroidManifest.xml:7:5-9:41
MERGED from [com.firebaseui:firebase-ui-database:0.4.3] /home/bk/.gradle/caches/transforms-1/files-1.1/firebase-ui-database-0.4.3.aar/8d2cbaa683ea5d09837c7a461b252d57/AndroidManifest.xml:7:5-9:41
MERGED from [com.android.support:appcompat-v7:27.1.1] /home/bk/.gradle/caches/transforms-1/files-1.1/appcompat-v7-27.1.1.aar/00733f98a78d6118bbb15e2c340a2531/AndroidManifest.xml:20:5-44
MERGED from [com.android.support:appcompat-v7:27.1.1] /home/bk/.gradle/caches/transforms-1/files-1.1/appcompat-v7-27.1.1.aar/00733f98a78d6118bbb15e2c340a2531/AndroidManifest.xml:20:5-44
MERGED from [com.android.support.constraint:constraint-layout:1.1.0] /home/bk/.gradle/caches/transforms-1/files-1.1/constraint-layout-1.1.0.aar/08e3aa1c2d6d010b55cb24781e8d16eb/AndroidManifest.xml:5:5-7:41
MERGED from [com.android.support.constraint:constraint-layout:1.1.0] /home/bk/.gradle/caches/transforms-1/files-1.1/constraint-layout-1.1.0.aar/08e3aa1c2d6d010b55cb24781e8d16eb/AndroidManifest.xml:5:5-7:41
MERGED from [com.google.firebase:firebase-core:15.0.0] /home/bk/.gradle/caches/transforms-1/files-1.1/firebase-core-15.0.0.aar/ef49bc0197b194020dbe01f483d3ce2f/AndroidManifest.xml:5:5-44
MERGED from [com.google.firebase:firebase-core:15.0.0] /home/bk/.gradle/caches/transforms-1/files-1.1/firebase-core-15.0.0.aar/ef49bc0197b194020dbe01f483d3ce2f/AndroidManifest.xml:5:5-44
MERGED from [com.google.firebase:firebase-auth:15.0.0] /home/bk/.gradle/caches/transforms-1/files-1.1/firebase-auth-15.0.0.aar/eea0f68972a807a7302eeeb1fdfc2896/AndroidManifest.xml:20:5-44
MERGED from [com.google.firebase:firebase-auth:15.0.0] /home/bk/.gradle/caches/transforms-1/files-1.1/firebase-auth-15.0.0.aar/eea0f68972a807a7302eeeb1fdfc2896/AndroidManifest.xml:20:5-44
MERGED from [com.google.firebase:firebase-database:15.0.0] /home/bk/.gradle/caches/transforms-1/files-1.1/firebase-database-15.0.0.aar/ac64426060a7d9fc1d8ccc1ae5e94f1c/AndroidManifest.xml:6:5-44
MERGED from [com.google.firebase:firebase-database:15.0.0] /home/bk/.gradle/caches/transforms-1/files-1.1/firebase-database-15.0.0.aar/ac64426060a7d9fc1d8ccc1ae5e94f1c/AndroidManifest.xml:6:5-44
MERGED from [com.google.firebase:firebase-firestore:15.0.0] /home/bk/.gradle/caches/transforms-1/files-1.1/firebase-firestore-15.0.0.aar/f60eb5f10f3bb9e0d43b013f1fc6fdcb/AndroidManifest.xml:6:5-44
MERGED from [com.google.firebase:firebase-firestore:15.0.0] /home/bk/.gradle/caches/transforms-1/files-1.1/firebase-firestore-15.0.0.aar/f60eb5f10f3bb9e0d43b013f1fc6fdcb/AndroidManifest.xml:6:5-44
MERGED from [de.hdodenhof:circleimageview:2.2.0] /home/bk/.gradle/caches/transforms-1/files-1.1/circleimageview-2.2.0.aar/7bfe8c728006c5ce44aa0e62047542ce/AndroidManifest.xml:5:5-7:41
MERGED from [de.hdodenhof:circleimageview:2.2.0] /home/bk/.gradle/caches/transforms-1/files-1.1/circleimageview-2.2.0.aar/7bfe8c728006c5ce44aa0e62047542ce/AndroidManifest.xml:5:5-7:41
MERGED from [com.squareup.picasso:picasso:2.71828] /home/bk/.gradle/caches/transforms-1/files-1.1/picasso-2.71828.aar/77f089b2aaa2e526765374a21df9d492/AndroidManifest.xml:5:5-44
MERGED from [com.squareup.picasso:picasso:2.71828] /home/bk/.gradle/caches/transforms-1/files-1.1/picasso-2.71828.aar/77f089b2aaa2e526765374a21df9d492/AndroidManifest.xml:5:5-44
MERGED from [com.android.support:cardview-v7:27.1.1] /home/bk/.gradle/caches/transforms-1/files-1.1/cardview-v7-27.1.1.aar/a72c62d23411ad9cc725130d4fa83a09/AndroidManifest.xml:20:5-44
MERGED from [com.android.support:cardview-v7:27.1.1] /home/bk/.gradle/caches/transforms-1/files-1.1/cardview-v7-27.1.1.aar/a72c62d23411ad9cc725130d4fa83a09/AndroidManifest.xml:20:5-44
MERGED from [com.android.support:recyclerview-v7:24.0.0] /home/bk/.gradle/caches/transforms-1/files-1.1/recyclerview-v7-24.0.0.aar/9c9cc1135de7dc4303a713d128d621b9/AndroidManifest.xml:20:5-43
MERGED from [com.android.support:recyclerview-v7:24.0.0] /home/bk/.gradle/caches/transforms-1/files-1.1/recyclerview-v7-24.0.0.aar/9c9cc1135de7dc4303a713d128d621b9/AndroidManifest.xml:20:5-43
MERGED from [com.android.support:exifinterface:27.1.0] /home/bk/.gradle/caches/transforms-1/files-1.1/exifinterface-27.1.0.aar/29e777ee559dda0db63450cc42815dd9/AndroidManifest.xml:20:5-44
MERGED from [com.android.support:exifinterface:27.1.0] /home/bk/.gradle/caches/transforms-1/files-1.1/exifinterface-27.1.0.aar/29e777ee559dda0db63450cc42815dd9/AndroidManifest.xml:20:5-44
MERGED from [com.android.support:animated-vector-drawable:27.1.1] /home/bk/.gradle/caches/transforms-1/files-1.1/animated-vector-drawable-27.1.1.aar/8d0f427336a606e59beaa605ae17d167/AndroidManifest.xml:20:5-44
MERGED from [com.android.support:animated-vector-drawable:27.1.1] /home/bk/.gradle/caches/transforms-1/files-1.1/animated-vector-drawable-27.1.1.aar/8d0f427336a606e59beaa605ae17d167/AndroidManifest.xml:20:5-44
MERGED from [com.android.support:support-vector-drawable:27.1.1] /home/bk/.gradle/caches/transforms-1/files-1.1/support-vector-drawable-27.1.1.aar/9c690be06f8b13502db81b479b4753a0/AndroidManifest.xml:20:5-44
MERGED from [com.android.support:support-vector-drawable:27.1.1] /home/bk/.gradle/caches/transforms-1/files-1.1/support-vector-drawable-27.1.1.aar/9c690be06f8b13502db81b479b4753a0/AndroidManifest.xml:20:5-44
MERGED from [com.google.firebase:firebase-database-connection:15.0.0] /home/bk/.gradle/caches/transforms-1/files-1.1/firebase-database-connection-15.0.0.aar/fb160c1eec7c0ec8f79c6e646654af3f/AndroidManifest.xml:6:5-44
MERGED from [com.google.firebase:firebase-database-connection:15.0.0] /home/bk/.gradle/caches/transforms-1/files-1.1/firebase-database-connection-15.0.0.aar/fb160c1eec7c0ec8f79c6e646654af3f/AndroidManifest.xml:6:5-44
MERGED from [com.google.firebase:firebase-analytics:15.0.2] /home/bk/.gradle/caches/transforms-1/files-1.1/firebase-analytics-15.0.2.aar/e4663816129384173feb1104a6e8c442/AndroidManifest.xml:20:5-44
MERGED from [com.google.firebase:firebase-analytics:15.0.2] /home/bk/.gradle/caches/transforms-1/files-1.1/firebase-analytics-15.0.2.aar/e4663816129384173feb1104a6e8c442/AndroidManifest.xml:20:5-44
MERGED from [com.google.android.gms:play-services-flags:15.0.1] /home/bk/.gradle/caches/transforms-1/files-1.1/play-services-flags-15.0.1.aar/cdb00b19e1c0a0587f56b7e9877334e7/AndroidManifest.xml:20:5-44
MERGED from [com.google.android.gms:play-services-flags:15.0.1] /home/bk/.gradle/caches/transforms-1/files-1.1/play-services-flags-15.0.1.aar/cdb00b19e1c0a0587f56b7e9877334e7/AndroidManifest.xml:20:5-44
MERGED from [com.google.firebase:firebase-analytics-impl:15.0.2] /home/bk/.gradle/caches/transforms-1/files-1.1/firebase-analytics-impl-15.0.2.aar/6331364440c8eb48951ba27242639076/AndroidManifest.xml:20:5-44
MERGED from [com.google.firebase:firebase-analytics-impl:15.0.2] /home/bk/.gradle/caches/transforms-1/files-1.1/firebase-analytics-impl-15.0.2.aar/6331364440c8eb48951ba27242639076/AndroidManifest.xml:20:5-44
MERGED from [com.google.firebase:firebase-iid:15.1.0] /home/bk/.gradle/caches/transforms-1/files-1.1/firebase-iid-15.1.0.aar/6335d7517feb282a29d89754fa6bf4a8/AndroidManifest.xml:20:5-44
MERGED from [com.google.firebase:firebase-iid:15.1.0] /home/bk/.gradle/caches/transforms-1/files-1.1/firebase-iid-15.1.0.aar/6335d7517feb282a29d89754fa6bf4a8/AndroidManifest.xml:20:5-44
MERGED from [com.google.firebase:firebase-iid-interop:15.0.0] /home/bk/.gradle/caches/transforms-1/files-1.1/firebase-iid-interop-15.0.0.aar/43fe8d24978bd6c3c453580753e73d60/AndroidManifest.xml:5:5-44
MERGED from [com.google.firebase:firebase-iid-interop:15.0.0] /home/bk/.gradle/caches/transforms-1/files-1.1/firebase-iid-interop-15.0.0.aar/43fe8d24978bd6c3c453580753e73d60/AndroidManifest.xml:5:5-44
MERGED from [com.google.android.gms:play-services-base:15.0.1] /home/bk/.gradle/caches/transforms-1/files-1.1/play-services-base-15.0.1.aar/529d2b93282a9b752a1dd96e99281ce4/AndroidManifest.xml:20:5-44
MERGED from [com.google.android.gms:play-services-base:15.0.1] /home/bk/.gradle/caches/transforms-1/files-1.1/play-services-base-15.0.1.aar/529d2b93282a9b752a1dd96e99281ce4/AndroidManifest.xml:20:5-44
MERGED from [com.google.firebase:firebase-common:15.0.1] /home/bk/.gradle/caches/transforms-1/files-1.1/firebase-common-15.0.1.aar/95a1c784ff5532c382f5d8196e48d0aa/AndroidManifest.xml:5:5-44
MERGED from [com.google.firebase:firebase-common:15.0.1] /home/bk/.gradle/caches/transforms-1/files-1.1/firebase-common-15.0.1.aar/95a1c784ff5532c382f5d8196e48d0aa/AndroidManifest.xml:5:5-44
MERGED from [com.google.android.gms:play-services-tasks:15.0.1] /home/bk/.gradle/caches/transforms-1/files-1.1/play-services-tasks-15.0.1.aar/5899d072b76d539e43ec16eddfedce29/AndroidManifest.xml:5:5-44
MERGED from [com.google.android.gms:play-services-tasks:15.0.1] /home/bk/.gradle/caches/transforms-1/files-1.1/play-services-tasks-15.0.1.aar/5899d072b76d539e43ec16eddfedce29/AndroidManifest.xml:5:5-44
MERGED from [com.google.firebase:firebase-database-collection:15.0.1] /home/bk/.gradle/caches/transforms-1/files-1.1/firebase-database-collection-15.0.1.aar/8ef863b5f84c61ad14a659833f01df0e/AndroidManifest.xml:6:5-44
MERGED from [com.google.firebase:firebase-database-collection:15.0.1] /home/bk/.gradle/caches/transforms-1/files-1.1/firebase-database-collection-15.0.1.aar/8ef863b5f84c61ad14a659833f01df0e/AndroidManifest.xml:6:5-44
MERGED from [com.google.android.gms:play-services-stats:15.0.1] /home/bk/.gradle/caches/transforms-1/files-1.1/play-services-stats-15.0.1.aar/1bf6280364cf792fffb0de96e55fbc18/AndroidManifest.xml:5:5-44
MERGED from [com.google.android.gms:play-services-stats:15.0.1] /home/bk/.gradle/caches/transforms-1/files-1.1/play-services-stats-15.0.1.aar/1bf6280364cf792fffb0de96e55fbc18/AndroidManifest.xml:5:5-44
MERGED from [com.google.android.gms:play-services-ads-identifier:15.0.1] /home/bk/.gradle/caches/transforms-1/files-1.1/play-services-ads-identifier-15.0.1.aar/1d8c074aaa624e3f691545a73d7099d2/AndroidManifest.xml:20:5-44
MERGED from [com.google.android.gms:play-services-ads-identifier:15.0.1] /home/bk/.gradle/caches/transforms-1/files-1.1/play-services-ads-identifier-15.0.1.aar/1d8c074aaa624e3f691545a73d7099d2/AndroidManifest.xml:20:5-44
MERGED from [com.google.android.gms:play-services-basement:15.0.1] /home/bk/.gradle/caches/transforms-1/files-1.1/play-services-basement-15.0.1.aar/a26164390d95e30bbd443269003062ab/AndroidManifest.xml:20:5-44
MERGED from [com.google.android.gms:play-services-basement:15.0.1] /home/bk/.gradle/caches/transforms-1/files-1.1/play-services-basement-15.0.1.aar/a26164390d95e30bbd443269003062ab/AndroidManifest.xml:20:5-44
MERGED from [com.android.support:support-v4:26.1.0] /home/bk/.gradle/caches/transforms-1/files-1.1/support-v4-26.1.0.aar/ce24a0cf3168ebbe9c885d276ebdf7f1/AndroidManifest.xml:21:5-23:54
MERGED from [com.android.support:support-v4:26.1.0] /home/bk/.gradle/caches/transforms-1/files-1.1/support-v4-26.1.0.aar/ce24a0cf3168ebbe9c885d276ebdf7f1/AndroidManifest.xml:21:5-23:54
MERGED from [com.android.support:support-media-compat:26.1.0] /home/bk/.gradle/caches/transforms-1/files-1.1/support-media-compat-26.1.0.aar/e07585e9d564ae730a534d607d610bf9/AndroidManifest.xml:21:5-23:63
MERGED from [com.android.support:support-media-compat:26.1.0] /home/bk/.gradle/caches/transforms-1/files-1.1/support-media-compat-26.1.0.aar/e07585e9d564ae730a534d607d610bf9/AndroidManifest.xml:21:5-23:63
MERGED from [com.android.support:support-fragment:27.1.1] /home/bk/.gradle/caches/transforms-1/files-1.1/support-fragment-27.1.1.aar/ee207736fae2f3f16586ca43bf3511c2/AndroidManifest.xml:20:5-44
MERGED from [com.android.support:support-fragment:27.1.1] /home/bk/.gradle/caches/transforms-1/files-1.1/support-fragment-27.1.1.aar/ee207736fae2f3f16586ca43bf3511c2/AndroidManifest.xml:20:5-44
MERGED from [com.android.support:support-core-ui:27.1.1] /home/bk/.gradle/caches/transforms-1/files-1.1/support-core-ui-27.1.1.aar/8dee99e676b965e09782827c64a61714/AndroidManifest.xml:20:5-44
MERGED from [com.android.support:support-core-ui:27.1.1] /home/bk/.gradle/caches/transforms-1/files-1.1/support-core-ui-27.1.1.aar/8dee99e676b965e09782827c64a61714/AndroidManifest.xml:20:5-44
MERGED from [com.android.support:support-core-utils:27.1.1] /home/bk/.gradle/caches/transforms-1/files-1.1/support-core-utils-27.1.1.aar/f678cfadf92f0341ef3d3f61e0d375c7/AndroidManifest.xml:20:5-44
MERGED from [com.android.support:support-core-utils:27.1.1] /home/bk/.gradle/caches/transforms-1/files-1.1/support-core-utils-27.1.1.aar/f678cfadf92f0341ef3d3f61e0d375c7/AndroidManifest.xml:20:5-44
MERGED from [com.android.support:support-compat:27.1.1] /home/bk/.gradle/caches/transforms-1/files-1.1/support-compat-27.1.1.aar/4b3fb10e005801d76b1e2bc8fadfd986/AndroidManifest.xml:20:5-44
MERGED from [com.android.support:support-compat:27.1.1] /home/bk/.gradle/caches/transforms-1/files-1.1/support-compat-27.1.1.aar/4b3fb10e005801d76b1e2bc8fadfd986/AndroidManifest.xml:20:5-44
MERGED from [com.google.android.gms:play-services-measurement-base:15.0.2] /home/bk/.gradle/caches/transforms-1/files-1.1/play-services-measurement-base-15.0.2.aar/d783ba25a1a11d3b5b8e12cdd197aafe/AndroidManifest.xml:20:5-44
MERGED from [com.google.android.gms:play-services-measurement-base:15.0.2] /home/bk/.gradle/caches/transforms-1/files-1.1/play-services-measurement-base-15.0.2.aar/d783ba25a1a11d3b5b8e12cdd197aafe/AndroidManifest.xml:20:5-44
MERGED from [android.arch.lifecycle:livedata-core:1.1.0] /home/bk/.gradle/caches/transforms-1/files-1.1/livedata-core-1.1.0.aar/c3858b017e292566c26f6ffd50eb6e02/AndroidManifest.xml:20:5-44
MERGED from [android.arch.lifecycle:livedata-core:1.1.0] /home/bk/.gradle/caches/transforms-1/files-1.1/livedata-core-1.1.0.aar/c3858b017e292566c26f6ffd50eb6e02/AndroidManifest.xml:20:5-44
MERGED from [android.arch.lifecycle:viewmodel:1.1.0] /home/bk/.gradle/caches/transforms-1/files-1.1/viewmodel-1.1.0.aar/f15267eda240d5dd05c8570742c9533a/AndroidManifest.xml:20:5-44
MERGED from [android.arch.lifecycle:viewmodel:1.1.0] /home/bk/.gradle/caches/transforms-1/files-1.1/viewmodel-1.1.0.aar/f15267eda240d5dd05c8570742c9533a/AndroidManifest.xml:20:5-44
MERGED from [android.arch.lifecycle:runtime:1.1.0] /home/bk/.gradle/caches/transforms-1/files-1.1/runtime-1.1.0.aar/c2280ae9e03a2ed858fb362710a84320/AndroidManifest.xml:20:5-44
MERGED from [android.arch.lifecycle:runtime:1.1.0] /home/bk/.gradle/caches/transforms-1/files-1.1/runtime-1.1.0.aar/c2280ae9e03a2ed858fb362710a84320/AndroidManifest.xml:20:5-44
MERGED from [android.arch.core:runtime:1.1.0] /home/bk/.gradle/caches/transforms-1/files-1.1/runtime-1.1.0.aar/9d09fb9f4d60315f74f3a1b7fcb29dfa/AndroidManifest.xml:20:5-44
MERGED from [android.arch.core:runtime:1.1.0] /home/bk/.gradle/caches/transforms-1/files-1.1/runtime-1.1.0.aar/9d09fb9f4d60315f74f3a1b7fcb29dfa/AndroidManifest.xml:20:5-44
INJECTED from /home/bk/Downloads/PlugMeInAppPrototype2/app/src/main/AndroidManifest.xml
INJECTED from /home/bk/Downloads/PlugMeInAppPrototype2/app/src/main/AndroidManifest.xml
	tools:overrideLibrary
		ADDED from [com.android.support:support-v4:26.1.0] /home/bk/.gradle/caches/transforms-1/files-1.1/support-v4-26.1.0.aar/ce24a0cf3168ebbe9c885d276ebdf7f1/AndroidManifest.xml:23:9-51
	android:targetSdkVersion
		INJECTED from /home/bk/Downloads/PlugMeInAppPrototype2/app/src/main/AndroidManifest.xml
		ADDED from /home/bk/Downloads/PlugMeInAppPrototype2/app/src/main/AndroidManifest.xml
		INJECTED from /home/bk/Downloads/PlugMeInAppPrototype2/app/src/main/AndroidManifest.xml
	android:minSdkVersion
		INJECTED from /home/bk/Downloads/PlugMeInAppPrototype2/app/src/main/AndroidManifest.xml
		ADDED from /home/bk/Downloads/PlugMeInAppPrototype2/app/src/main/AndroidManifest.xml
		INJECTED from /home/bk/Downloads/PlugMeInAppPrototype2/app/src/main/AndroidManifest.xml
activity#com.google.firebase.auth.internal.FederatedSignInActivity
ADDED from [com.google.firebase:firebase-auth:15.0.0] /home/bk/.gradle/caches/transforms-1/files-1.1/firebase-auth-15.0.0.aar/eea0f68972a807a7302eeeb1fdfc2896/AndroidManifest.xml:23:9-29:75
	android:excludeFromRecents
		ADDED from [com.google.firebase:firebase-auth:15.0.0] /home/bk/.gradle/caches/transforms-1/files-1.1/firebase-auth-15.0.0.aar/eea0f68972a807a7302eeeb1fdfc2896/AndroidManifest.xml:25:13-46
	android:launchMode
		ADDED from [com.google.firebase:firebase-auth:15.0.0] /home/bk/.gradle/caches/transforms-1/files-1.1/firebase-auth-15.0.0.aar/eea0f68972a807a7302eeeb1fdfc2896/AndroidManifest.xml:27:13-48
	android:exported
		ADDED from [com.google.firebase:firebase-auth:15.0.0] /home/bk/.gradle/caches/transforms-1/files-1.1/firebase-auth-15.0.0.aar/eea0f68972a807a7302eeeb1fdfc2896/AndroidManifest.xml:26:13-36
	android:permission
		ADDED from [com.google.firebase:firebase-auth:15.0.0] /home/bk/.gradle/caches/transforms-1/files-1.1/firebase-auth-15.0.0.aar/eea0f68972a807a7302eeeb1fdfc2896/AndroidManifest.xml:28:13-102
	android:theme
		ADDED from [com.google.firebase:firebase-auth:15.0.0] /home/bk/.gradle/caches/transforms-1/files-1.1/firebase-auth-15.0.0.aar/eea0f68972a807a7302eeeb1fdfc2896/AndroidManifest.xml:29:13-72
	android:name
		ADDED from [com.google.firebase:firebase-auth:15.0.0] /home/bk/.gradle/caches/transforms-1/files-1.1/firebase-auth-15.0.0.aar/eea0f68972a807a7302eeeb1fdfc2896/AndroidManifest.xml:24:13-85
provider#com.squareup.picasso.PicassoProvider
ADDED from [com.squareup.picasso:picasso:2.71828] /home/bk/.gradle/caches/transforms-1/files-1.1/picasso-2.71828.aar/77f089b2aaa2e526765374a21df9d492/AndroidManifest.xml:8:9-11:40
	android:authorities
		ADDED from [com.squareup.picasso:picasso:2.71828] /home/bk/.gradle/caches/transforms-1/files-1.1/picasso-2.71828.aar/77f089b2aaa2e526765374a21df9d492/AndroidManifest.xml:10:13-72
	android:exported
		ADDED from [com.squareup.picasso:picasso:2.71828] /home/bk/.gradle/caches/transforms-1/files-1.1/picasso-2.71828.aar/77f089b2aaa2e526765374a21df9d492/AndroidManifest.xml:11:13-37
	android:name
		ADDED from [com.squareup.picasso:picasso:2.71828] /home/bk/.gradle/caches/transforms-1/files-1.1/picasso-2.71828.aar/77f089b2aaa2e526765374a21df9d492/AndroidManifest.xml:9:13-64
uses-permission#android.permission.ACCESS_NETWORK_STATE
ADDED from [com.google.firebase:firebase-analytics:15.0.2] /home/bk/.gradle/caches/transforms-1/files-1.1/firebase-analytics-15.0.2.aar/e4663816129384173feb1104a6e8c442/AndroidManifest.xml:24:5-79
MERGED from [com.google.firebase:firebase-analytics-impl:15.0.2] /home/bk/.gradle/caches/transforms-1/files-1.1/firebase-analytics-impl-15.0.2.aar/6331364440c8eb48951ba27242639076/AndroidManifest.xml:24:5-79
MERGED from [com.google.firebase:firebase-analytics-impl:15.0.2] /home/bk/.gradle/caches/transforms-1/files-1.1/firebase-analytics-impl-15.0.2.aar/6331364440c8eb48951ba27242639076/AndroidManifest.xml:24:5-79
MERGED from [com.google.firebase:firebase-iid:15.1.0] /home/bk/.gradle/caches/transforms-1/files-1.1/firebase-iid-15.1.0.aar/6335d7517feb282a29d89754fa6bf4a8/AndroidManifest.xml:22:5-79
MERGED from [com.google.firebase:firebase-iid:15.1.0] /home/bk/.gradle/caches/transforms-1/files-1.1/firebase-iid-15.1.0.aar/6335d7517feb282a29d89754fa6bf4a8/AndroidManifest.xml:22:5-79
	android:name
		ADDED from [com.google.firebase:firebase-analytics:15.0.2] /home/bk/.gradle/caches/transforms-1/files-1.1/firebase-analytics-15.0.2.aar/e4663816129384173feb1104a6e8c442/AndroidManifest.xml:24:22-76
uses-permission#android.permission.WAKE_LOCK
ADDED from [com.google.firebase:firebase-analytics:15.0.2] /home/bk/.gradle/caches/transforms-1/files-1.1/firebase-analytics-15.0.2.aar/e4663816129384173feb1104a6e8c442/AndroidManifest.xml:25:5-68
MERGED from [com.google.firebase:firebase-analytics-impl:15.0.2] /home/bk/.gradle/caches/transforms-1/files-1.1/firebase-analytics-impl-15.0.2.aar/6331364440c8eb48951ba27242639076/AndroidManifest.xml:25:5-68
MERGED from [com.google.firebase:firebase-analytics-impl:15.0.2] /home/bk/.gradle/caches/transforms-1/files-1.1/firebase-analytics-impl-15.0.2.aar/6331364440c8eb48951ba27242639076/AndroidManifest.xml:25:5-68
MERGED from [com.google.firebase:firebase-iid:15.1.0] /home/bk/.gradle/caches/transforms-1/files-1.1/firebase-iid-15.1.0.aar/6335d7517feb282a29d89754fa6bf4a8/AndroidManifest.xml:24:5-68
MERGED from [com.google.firebase:firebase-iid:15.1.0] /home/bk/.gradle/caches/transforms-1/files-1.1/firebase-iid-15.1.0.aar/6335d7517feb282a29d89754fa6bf4a8/AndroidManifest.xml:24:5-68
	android:name
		ADDED from [com.google.firebase:firebase-analytics:15.0.2] /home/bk/.gradle/caches/transforms-1/files-1.1/firebase-analytics-15.0.2.aar/e4663816129384173feb1104a6e8c442/AndroidManifest.xml:25:22-65
uses-permission#com.google.android.finsky.permission.BIND_GET_INSTALL_REFERRER_SERVICE
ADDED from [com.google.firebase:firebase-analytics:15.0.2] /home/bk/.gradle/caches/transforms-1/files-1.1/firebase-analytics-15.0.2.aar/e4663816129384173feb1104a6e8c442/AndroidManifest.xml:26:5-110
MERGED from [com.google.firebase:firebase-analytics-impl:15.0.2] /home/bk/.gradle/caches/transforms-1/files-1.1/firebase-analytics-impl-15.0.2.aar/6331364440c8eb48951ba27242639076/AndroidManifest.xml:26:5-110
MERGED from [com.google.firebase:firebase-analytics-impl:15.0.2] /home/bk/.gradle/caches/transforms-1/files-1.1/firebase-analytics-impl-15.0.2.aar/6331364440c8eb48951ba27242639076/AndroidManifest.xml:26:5-110
	android:name
		ADDED from [com.google.firebase:firebase-analytics:15.0.2] /home/bk/.gradle/caches/transforms-1/files-1.1/firebase-analytics-15.0.2.aar/e4663816129384173feb1104a6e8c442/AndroidManifest.xml:26:22-107
receiver#com.google.android.gms.measurement.AppMeasurementReceiver
ADDED from [com.google.firebase:firebase-analytics:15.0.2] /home/bk/.gradle/caches/transforms-1/files-1.1/firebase-analytics-15.0.2.aar/e4663816129384173feb1104a6e8c442/AndroidManifest.xml:29:9-33:20
MERGED from [com.google.firebase:firebase-analytics-impl:15.0.2] /home/bk/.gradle/caches/transforms-1/files-1.1/firebase-analytics-impl-15.0.2.aar/6331364440c8eb48951ba27242639076/AndroidManifest.xml:29:9-33:20
MERGED from [com.google.firebase:firebase-analytics-impl:15.0.2] /home/bk/.gradle/caches/transforms-1/files-1.1/firebase-analytics-impl-15.0.2.aar/6331364440c8eb48951ba27242639076/AndroidManifest.xml:29:9-33:20
	android:enabled
		ADDED from [com.google.firebase:firebase-analytics:15.0.2] /home/bk/.gradle/caches/transforms-1/files-1.1/firebase-analytics-15.0.2.aar/e4663816129384173feb1104a6e8c442/AndroidManifest.xml:31:13-35
	android:exported
		ADDED from [com.google.firebase:firebase-analytics:15.0.2] /home/bk/.gradle/caches/transforms-1/files-1.1/firebase-analytics-15.0.2.aar/e4663816129384173feb1104a6e8c442/AndroidManifest.xml:32:13-37
	android:name
		ADDED from [com.google.firebase:firebase-analytics:15.0.2] /home/bk/.gradle/caches/transforms-1/files-1.1/firebase-analytics-15.0.2.aar/e4663816129384173feb1104a6e8c442/AndroidManifest.xml:30:13-85
receiver#com.google.android.gms.measurement.AppMeasurementInstallReferrerReceiver
ADDED from [com.google.firebase:firebase-analytics:15.0.2] /home/bk/.gradle/caches/transforms-1/files-1.1/firebase-analytics-15.0.2.aar/e4663816129384173feb1104a6e8c442/AndroidManifest.xml:34:9-42:20
	android:enabled
		ADDED from [com.google.firebase:firebase-analytics:15.0.2] /home/bk/.gradle/caches/transforms-1/files-1.1/firebase-analytics-15.0.2.aar/e4663816129384173feb1104a6e8c442/AndroidManifest.xml:36:13-35
	android:exported
		ADDED from [com.google.firebase:firebase-analytics:15.0.2] /home/bk/.gradle/caches/transforms-1/files-1.1/firebase-analytics-15.0.2.aar/e4663816129384173feb1104a6e8c442/AndroidManifest.xml:37:13-36
	android:permission
		ADDED from [com.google.firebase:firebase-analytics:15.0.2] /home/bk/.gradle/caches/transforms-1/files-1.1/firebase-analytics-15.0.2.aar/e4663816129384173feb1104a6e8c442/AndroidManifest.xml:38:13-69
	android:name
		ADDED from [com.google.firebase:firebase-analytics:15.0.2] /home/bk/.gradle/caches/transforms-1/files-1.1/firebase-analytics-15.0.2.aar/e4663816129384173feb1104a6e8c442/AndroidManifest.xml:35:13-100
intent-filter#action:name:com.android.vending.INSTALL_REFERRER
ADDED from [com.google.firebase:firebase-analytics:15.0.2] /home/bk/.gradle/caches/transforms-1/files-1.1/firebase-analytics-15.0.2.aar/e4663816129384173feb1104a6e8c442/AndroidManifest.xml:39:13-41:29
action#com.android.vending.INSTALL_REFERRER
ADDED from [com.google.firebase:firebase-analytics:15.0.2] /home/bk/.gradle/caches/transforms-1/files-1.1/firebase-analytics-15.0.2.aar/e4663816129384173feb1104a6e8c442/AndroidManifest.xml:40:17-79
	android:name
		ADDED from [com.google.firebase:firebase-analytics:15.0.2] /home/bk/.gradle/caches/transforms-1/files-1.1/firebase-analytics-15.0.2.aar/e4663816129384173feb1104a6e8c442/AndroidManifest.xml:40:25-76
service#com.google.android.gms.measurement.AppMeasurementService
ADDED from [com.google.firebase:firebase-analytics:15.0.2] /home/bk/.gradle/caches/transforms-1/files-1.1/firebase-analytics-15.0.2.aar/e4663816129384173feb1104a6e8c442/AndroidManifest.xml:44:9-47:40
MERGED from [com.google.firebase:firebase-analytics-impl:15.0.2] /home/bk/.gradle/caches/transforms-1/files-1.1/firebase-analytics-impl-15.0.2.aar/6331364440c8eb48951ba27242639076/AndroidManifest.xml:35:9-38:40
MERGED from [com.google.firebase:firebase-analytics-impl:15.0.2] /home/bk/.gradle/caches/transforms-1/files-1.1/firebase-analytics-impl-15.0.2.aar/6331364440c8eb48951ba27242639076/AndroidManifest.xml:35:9-38:40
	android:enabled
		ADDED from [com.google.firebase:firebase-analytics:15.0.2] /home/bk/.gradle/caches/transforms-1/files-1.1/firebase-analytics-15.0.2.aar/e4663816129384173feb1104a6e8c442/AndroidManifest.xml:46:13-35
	android:exported
		ADDED from [com.google.firebase:firebase-analytics:15.0.2] /home/bk/.gradle/caches/transforms-1/files-1.1/firebase-analytics-15.0.2.aar/e4663816129384173feb1104a6e8c442/AndroidManifest.xml:47:13-37
	android:name
		ADDED from [com.google.firebase:firebase-analytics:15.0.2] /home/bk/.gradle/caches/transforms-1/files-1.1/firebase-analytics-15.0.2.aar/e4663816129384173feb1104a6e8c442/AndroidManifest.xml:45:13-84
service#com.google.android.gms.measurement.AppMeasurementJobService
ADDED from [com.google.firebase:firebase-analytics:15.0.2] /home/bk/.gradle/caches/transforms-1/files-1.1/firebase-analytics-15.0.2.aar/e4663816129384173feb1104a6e8c442/AndroidManifest.xml:48:9-52:72
	android:enabled
		ADDED from [com.google.firebase:firebase-analytics:15.0.2] /home/bk/.gradle/caches/transforms-1/files-1.1/firebase-analytics-15.0.2.aar/e4663816129384173feb1104a6e8c442/AndroidManifest.xml:50:13-35
	android:exported
		ADDED from [com.google.firebase:firebase-analytics:15.0.2] /home/bk/.gradle/caches/transforms-1/files-1.1/firebase-analytics-15.0.2.aar/e4663816129384173feb1104a6e8c442/AndroidManifest.xml:51:13-37
	android:permission
		ADDED from [com.google.firebase:firebase-analytics:15.0.2] /home/bk/.gradle/caches/transforms-1/files-1.1/firebase-analytics-15.0.2.aar/e4663816129384173feb1104a6e8c442/AndroidManifest.xml:52:13-69
	android:name
		ADDED from [com.google.firebase:firebase-analytics:15.0.2] /home/bk/.gradle/caches/transforms-1/files-1.1/firebase-analytics-15.0.2.aar/e4663816129384173feb1104a6e8c442/AndroidManifest.xml:49:13-87
uses-permission#com.google.android.c2dm.permission.RECEIVE
ADDED from [com.google.firebase:firebase-iid:15.1.0] /home/bk/.gradle/caches/transforms-1/files-1.1/firebase-iid-15.1.0.aar/6335d7517feb282a29d89754fa6bf4a8/AndroidManifest.xml:26:5-82
	android:name
		ADDED from [com.google.firebase:firebase-iid:15.1.0] /home/bk/.gradle/caches/transforms-1/files-1.1/firebase-iid-15.1.0.aar/6335d7517feb282a29d89754fa6bf4a8/AndroidManifest.xml:26:22-79
permission#${applicationId}.permission.C2D_MESSAGE
ADDED from [com.google.firebase:firebase-iid:15.1.0] /home/bk/.gradle/caches/transforms-1/files-1.1/firebase-iid-15.1.0.aar/6335d7517feb282a29d89754fa6bf4a8/AndroidManifest.xml:28:5-30:47
	android:protectionLevel
		ADDED from [com.google.firebase:firebase-iid:15.1.0] /home/bk/.gradle/caches/transforms-1/files-1.1/firebase-iid-15.1.0.aar/6335d7517feb282a29d89754fa6bf4a8/AndroidManifest.xml:30:9-44
	android:name
		ADDED from [com.google.firebase:firebase-iid:15.1.0] /home/bk/.gradle/caches/transforms-1/files-1.1/firebase-iid-15.1.0.aar/6335d7517feb282a29d89754fa6bf4a8/AndroidManifest.xml:29:9-63
permission#com.plugmeinapp.plugmeinapp.permission.C2D_MESSAGE
ADDED from [com.google.firebase:firebase-iid:15.1.0] /home/bk/.gradle/caches/transforms-1/files-1.1/firebase-iid-15.1.0.aar/6335d7517feb282a29d89754fa6bf4a8/AndroidManifest.xml:28:5-30:47
	android:protectionLevel
		ADDED from [com.google.firebase:firebase-iid:15.1.0] /home/bk/.gradle/caches/transforms-1/files-1.1/firebase-iid-15.1.0.aar/6335d7517feb282a29d89754fa6bf4a8/AndroidManifest.xml:30:9-44
	android:name
		ADDED from [com.google.firebase:firebase-iid:15.1.0] /home/bk/.gradle/caches/transforms-1/files-1.1/firebase-iid-15.1.0.aar/6335d7517feb282a29d89754fa6bf4a8/AndroidManifest.xml:29:9-63
uses-permission#${applicationId}.permission.C2D_MESSAGE
ADDED from [com.google.firebase:firebase-iid:15.1.0] /home/bk/.gradle/caches/transforms-1/files-1.1/firebase-iid-15.1.0.aar/6335d7517feb282a29d89754fa6bf4a8/AndroidManifest.xml:32:5-79
	android:name
		ADDED from [com.google.firebase:firebase-iid:15.1.0] /home/bk/.gradle/caches/transforms-1/files-1.1/firebase-iid-15.1.0.aar/6335d7517feb282a29d89754fa6bf4a8/AndroidManifest.xml:32:22-76
uses-permission#com.plugmeinapp.plugmeinapp.permission.C2D_MESSAGE
ADDED from [com.google.firebase:firebase-iid:15.1.0] /home/bk/.gradle/caches/transforms-1/files-1.1/firebase-iid-15.1.0.aar/6335d7517feb282a29d89754fa6bf4a8/AndroidManifest.xml:32:5-79
	android:name
		ADDED from [com.google.firebase:firebase-iid:15.1.0] /home/bk/.gradle/caches/transforms-1/files-1.1/firebase-iid-15.1.0.aar/6335d7517feb282a29d89754fa6bf4a8/AndroidManifest.xml:32:22-76
service#com.google.firebase.components.ComponentDiscoveryService
ADDED from [com.google.firebase:firebase-iid:15.1.0] /home/bk/.gradle/caches/transforms-1/files-1.1/firebase-iid-15.1.0.aar/6335d7517feb282a29d89754fa6bf4a8/AndroidManifest.xml:35:9-39:19
	android:name
		ADDED from [com.google.firebase:firebase-iid:15.1.0] /home/bk/.gradle/caches/transforms-1/files-1.1/firebase-iid-15.1.0.aar/6335d7517feb282a29d89754fa6bf4a8/AndroidManifest.xml:35:18-89
meta-data#com.google.firebase.components:com.google.firebase.iid.Registrar
ADDED from [com.google.firebase:firebase-iid:15.1.0] /home/bk/.gradle/caches/transforms-1/files-1.1/firebase-iid-15.1.0.aar/6335d7517feb282a29d89754fa6bf4a8/AndroidManifest.xml:36:13-38:85
	android:value
		ADDED from [com.google.firebase:firebase-iid:15.1.0] /home/bk/.gradle/caches/transforms-1/files-1.1/firebase-iid-15.1.0.aar/6335d7517feb282a29d89754fa6bf4a8/AndroidManifest.xml:38:17-82
	android:name
		ADDED from [com.google.firebase:firebase-iid:15.1.0] /home/bk/.gradle/caches/transforms-1/files-1.1/firebase-iid-15.1.0.aar/6335d7517feb282a29d89754fa6bf4a8/AndroidManifest.xml:37:17-96
receiver#com.google.firebase.iid.FirebaseInstanceIdReceiver
ADDED from [com.google.firebase:firebase-iid:15.1.0] /home/bk/.gradle/caches/transforms-1/files-1.1/firebase-iid-15.1.0.aar/6335d7517feb282a29d89754fa6bf4a8/AndroidManifest.xml:41:9-50:20
	android:exported
		ADDED from [com.google.firebase:firebase-iid:15.1.0] /home/bk/.gradle/caches/transforms-1/files-1.1/firebase-iid-15.1.0.aar/6335d7517feb282a29d89754fa6bf4a8/AndroidManifest.xml:43:13-36
	android:permission
		ADDED from [com.google.firebase:firebase-iid:15.1.0] /home/bk/.gradle/caches/transforms-1/files-1.1/firebase-iid-15.1.0.aar/6335d7517feb282a29d89754fa6bf4a8/AndroidManifest.xml:44:13-73
	android:name
		ADDED from [com.google.firebase:firebase-iid:15.1.0] /home/bk/.gradle/caches/transforms-1/files-1.1/firebase-iid-15.1.0.aar/6335d7517feb282a29d89754fa6bf4a8/AndroidManifest.xml:42:13-78
intent-filter#action:name:com.google.android.c2dm.intent.RECEIVE+category:name:${applicationId}
ADDED from [com.google.firebase:firebase-iid:15.1.0] /home/bk/.gradle/caches/transforms-1/files-1.1/firebase-iid-15.1.0.aar/6335d7517feb282a29d89754fa6bf4a8/AndroidManifest.xml:45:13-49:29
intent-filter#action:name:com.google.android.c2dm.intent.RECEIVE+category:name:com.plugmeinapp.plugmeinapp
ADDED from [com.google.firebase:firebase-iid:15.1.0] /home/bk/.gradle/caches/transforms-1/files-1.1/firebase-iid-15.1.0.aar/6335d7517feb282a29d89754fa6bf4a8/AndroidManifest.xml:45:13-49:29
action#com.google.android.c2dm.intent.RECEIVE
ADDED from [com.google.firebase:firebase-iid:15.1.0] /home/bk/.gradle/caches/transforms-1/files-1.1/firebase-iid-15.1.0.aar/6335d7517feb282a29d89754fa6bf4a8/AndroidManifest.xml:46:17-81
	android:name
		ADDED from [com.google.firebase:firebase-iid:15.1.0] /home/bk/.gradle/caches/transforms-1/files-1.1/firebase-iid-15.1.0.aar/6335d7517feb282a29d89754fa6bf4a8/AndroidManifest.xml:46:25-78
category#${applicationId}
ADDED from [com.google.firebase:firebase-iid:15.1.0] /home/bk/.gradle/caches/transforms-1/files-1.1/firebase-iid-15.1.0.aar/6335d7517feb282a29d89754fa6bf4a8/AndroidManifest.xml:48:17-61
	android:name
		ADDED from [com.google.firebase:firebase-iid:15.1.0] /home/bk/.gradle/caches/transforms-1/files-1.1/firebase-iid-15.1.0.aar/6335d7517feb282a29d89754fa6bf4a8/AndroidManifest.xml:48:27-58
category#com.plugmeinapp.plugmeinapp
ADDED from [com.google.firebase:firebase-iid:15.1.0] /home/bk/.gradle/caches/transforms-1/files-1.1/firebase-iid-15.1.0.aar/6335d7517feb282a29d89754fa6bf4a8/AndroidManifest.xml:48:17-61
	android:name
		ADDED from [com.google.firebase:firebase-iid:15.1.0] /home/bk/.gradle/caches/transforms-1/files-1.1/firebase-iid-15.1.0.aar/6335d7517feb282a29d89754fa6bf4a8/AndroidManifest.xml:48:27-58
service#com.google.firebase.iid.FirebaseInstanceIdService
ADDED from [com.google.firebase:firebase-iid:15.1.0] /home/bk/.gradle/caches/transforms-1/files-1.1/firebase-iid-15.1.0.aar/6335d7517feb282a29d89754fa6bf4a8/AndroidManifest.xml:56:9-62:19
	android:exported
		ADDED from [com.google.firebase:firebase-iid:15.1.0] /home/bk/.gradle/caches/transforms-1/files-1.1/firebase-iid-15.1.0.aar/6335d7517feb282a29d89754fa6bf4a8/AndroidManifest.xml:58:13-36
	android:name
		ADDED from [com.google.firebase:firebase-iid:15.1.0] /home/bk/.gradle/caches/transforms-1/files-1.1/firebase-iid-15.1.0.aar/6335d7517feb282a29d89754fa6bf4a8/AndroidManifest.xml:57:13-77
intent-filter#action:name:com.google.firebase.INSTANCE_ID_EVENT
ADDED from [com.google.firebase:firebase-iid:15.1.0] /home/bk/.gradle/caches/transforms-1/files-1.1/firebase-iid-15.1.0.aar/6335d7517feb282a29d89754fa6bf4a8/AndroidManifest.xml:59:13-61:29
	android:priority
		ADDED from [com.google.firebase:firebase-iid:15.1.0] /home/bk/.gradle/caches/transforms-1/files-1.1/firebase-iid-15.1.0.aar/6335d7517feb282a29d89754fa6bf4a8/AndroidManifest.xml:59:28-51
action#com.google.firebase.INSTANCE_ID_EVENT
ADDED from [com.google.firebase:firebase-iid:15.1.0] /home/bk/.gradle/caches/transforms-1/files-1.1/firebase-iid-15.1.0.aar/6335d7517feb282a29d89754fa6bf4a8/AndroidManifest.xml:60:17-80
	android:name
		ADDED from [com.google.firebase:firebase-iid:15.1.0] /home/bk/.gradle/caches/transforms-1/files-1.1/firebase-iid-15.1.0.aar/6335d7517feb282a29d89754fa6bf4a8/AndroidManifest.xml:60:25-77
activity#com.google.android.gms.common.api.GoogleApiActivity
ADDED from [com.google.android.gms:play-services-base:15.0.1] /home/bk/.gradle/caches/transforms-1/files-1.1/play-services-base-15.0.1.aar/529d2b93282a9b752a1dd96e99281ce4/AndroidManifest.xml:23:9-26:75
	android:exported
		ADDED from [com.google.android.gms:play-services-base:15.0.1] /home/bk/.gradle/caches/transforms-1/files-1.1/play-services-base-15.0.1.aar/529d2b93282a9b752a1dd96e99281ce4/AndroidManifest.xml:25:13-37
	android:theme
		ADDED from [com.google.android.gms:play-services-base:15.0.1] /home/bk/.gradle/caches/transforms-1/files-1.1/play-services-base-15.0.1.aar/529d2b93282a9b752a1dd96e99281ce4/AndroidManifest.xml:26:13-72
	android:name
		ADDED from [com.google.android.gms:play-services-base:15.0.1] /home/bk/.gradle/caches/transforms-1/files-1.1/play-services-base-15.0.1.aar/529d2b93282a9b752a1dd96e99281ce4/AndroidManifest.xml:24:13-79
provider#com.google.firebase.provider.FirebaseInitProvider
ADDED from [com.google.firebase:firebase-common:15.0.1] /home/bk/.gradle/caches/transforms-1/files-1.1/firebase-common-15.0.1.aar/95a1c784ff5532c382f5d8196e48d0aa/AndroidManifest.xml:8:9-12:39
	android:authorities
		ADDED from [com.google.firebase:firebase-common:15.0.1] /home/bk/.gradle/caches/transforms-1/files-1.1/firebase-common-15.0.1.aar/95a1c784ff5532c382f5d8196e48d0aa/AndroidManifest.xml:10:13-72
	android:exported
		ADDED from [com.google.firebase:firebase-common:15.0.1] /home/bk/.gradle/caches/transforms-1/files-1.1/firebase-common-15.0.1.aar/95a1c784ff5532c382f5d8196e48d0aa/AndroidManifest.xml:11:13-37
	android:initOrder
		ADDED from [com.google.firebase:firebase-common:15.0.1] /home/bk/.gradle/caches/transforms-1/files-1.1/firebase-common-15.0.1.aar/95a1c784ff5532c382f5d8196e48d0aa/AndroidManifest.xml:12:13-36
	android:name
		ADDED from [com.google.firebase:firebase-common:15.0.1] /home/bk/.gradle/caches/transforms-1/files-1.1/firebase-common-15.0.1.aar/95a1c784ff5532c382f5d8196e48d0aa/AndroidManifest.xml:9:13-77
meta-data#com.google.android.gms.version
ADDED from [com.google.android.gms:play-services-basement:15.0.1] /home/bk/.gradle/caches/transforms-1/files-1.1/play-services-basement-15.0.1.aar/a26164390d95e30bbd443269003062ab/AndroidManifest.xml:23:9-25:69
	android:value
		ADDED from [com.google.android.gms:play-services-basement:15.0.1] /home/bk/.gradle/caches/transforms-1/files-1.1/play-services-basement-15.0.1.aar/a26164390d95e30bbd443269003062ab/AndroidManifest.xml:25:13-66
	android:name
		ADDED from [com.google.android.gms:play-services-basement:15.0.1] /home/bk/.gradle/caches/transforms-1/files-1.1/play-services-basement-15.0.1.aar/a26164390d95e30bbd443269003062ab/AndroidManifest.xml:24:13-58
meta-data#android.support.VERSION
ADDED from [com.android.support:support-v4:26.1.0] /home/bk/.gradle/caches/transforms-1/files-1.1/support-v4-26.1.0.aar/ce24a0cf3168ebbe9c885d276ebdf7f1/AndroidManifest.xml:26:9-28:38
MERGED from [com.android.support:support-media-compat:26.1.0] /home/bk/.gradle/caches/transforms-1/files-1.1/support-media-compat-26.1.0.aar/e07585e9d564ae730a534d607d610bf9/AndroidManifest.xml:26:9-28:38
MERGED from [com.android.support:support-media-compat:26.1.0] /home/bk/.gradle/caches/transforms-1/files-1.1/support-media-compat-26.1.0.aar/e07585e9d564ae730a534d607d610bf9/AndroidManifest.xml:26:9-28:38
	android:value
		ADDED from [com.android.support:support-v4:26.1.0] /home/bk/.gradle/caches/transforms-1/files-1.1/support-v4-26.1.0.aar/ce24a0cf3168ebbe9c885d276ebdf7f1/AndroidManifest.xml:28:13-35
	android:name
		ADDED from [com.android.support:support-v4:26.1.0] /home/bk/.gradle/caches/transforms-1/files-1.1/support-v4-26.1.0.aar/ce24a0cf3168ebbe9c885d276ebdf7f1/AndroidManifest.xml:27:13-51
